<svg xmlns="http://www.w3.org/2000/svg" id="Group_448" width="138" height="137.875" viewBox="0 0 138 137.875">
    <defs>
        <style>
            .cls-3{fill:#fff}
        </style>
    </defs>
    <path id="Rectangle_1" fill="#a26fe6" d="M0 0H138V137.876H0z" opacity="0.67"/>
    <g id="Group_447" transform="translate(8.073 77.503)" style="isolation:isolate">
        <path id="Path_1" d="M342.087 312.847h-3.777v10.281h-2.728v-10.281h-3.759v-2.617h10.264z" class="cls-3" transform="translate(-331.529 -310.23)"/>
        <path id="Path_2" d="M361.367 310.23v12.9h-2.745v-5.362h-5.492v5.362h-2.73v-12.9h2.728v4.92h5.492v-4.92z" class="cls-3" transform="translate(-337.468 -310.23)"/>
        <path id="Path_3" d="M379.3 310.23v2.617h-5.179v2.321h4.607v2.617h-4.607v2.727h5.179v2.617h-7.906v-12.9z" class="cls-3" transform="translate(-344.178 -310.23)"/>
        <path id="Path_4" d="M340.087 349.323h-4.974l-.83 2.156h-2.892l5.122-12.9h2.21l5.142 12.9H340.9zm-.9-2.34l-1.566-4.127-1.6 4.127z" class="cls-3" transform="translate(-331.391 -319.292)"/>
        <path id="Path_5" d="M357.179 351.576a6.635 6.635 0 0 1 0-13.267c2.617 0 4.883 1.383 5.509 3.354l-2.432 1.161a3.207 3.207 0 0 0-3.077-1.861 3.99 3.99 0 0 0 0 7.96 3.122 3.122 0 0 0 3.151-2.082l2.506 1.143c-.626 2.116-2.967 3.592-5.657 3.592z" class="cls-3" transform="translate(-337.555 -319.206)"/>
        <path id="Path_6" d="M379.219 351.479l-2.911-4.919h-1.4v4.919h-2.728v-12.9h4.975a4.067 4.067 0 0 1 4.072 3.981 3.809 3.809 0 0 1-2.063 3.574l3.372 5.343zm-4.312-7.278h1.972a1.5 1.5 0 1 0 0-2.985h-1.972z" class="cls-3" transform="translate(-344.43 -319.292)"/>
        <path id="Path_7" d="M398.692 338.58v2.62h-5.179v2.322h4.607v2.617h-4.607v2.727h5.179v2.617h-7.906v-12.9z" class="cls-3" transform="translate(-350.377 -319.292)"/>
        <path id="Path_8" d="M415.767 340.281l-1.584 2.156a4.952 4.952 0 0 0-3.262-1.493c-.922 0-1.548.424-1.548 1.05 0 2.193 6.6.866 6.6 5.565 0 2.045-1.732 4.017-4.754 4.017a7.32 7.32 0 0 1-5.343-2.451l1.75-1.99a4.868 4.868 0 0 0 3.593 1.787c1.161 0 1.953-.516 1.953-1.345 0-2.174-6.542-.737-6.542-5.381 0-2.193 1.861-3.888 4.515-3.888a6.707 6.707 0 0 1 4.622 1.973z" class="cls-3" transform="translate(-355.2 -319.206)"/>
        <path id="Path_9" d="M340.569 366.93v2.617h-5.179v2.69H340v2.617h-4.61v4.975h-2.727v-12.9z" class="cls-3" transform="translate(-331.798 -328.355)"/>
        <path id="Path_10" d="M360.6 373.293a6.588 6.588 0 1 1-6.6-6.634 6.473 6.473 0 0 1 6.6 6.634zm-10.374 0a3.783 3.783 0 1 0 3.774-3.981 3.8 3.8 0 0 0-3.776 3.981z" class="cls-3" transform="translate(-336.516 -328.268)"/>
        <path id="Path_11" d="M370.067 374.835v-7.9h2.727v7.9a2.389 2.389 0 1 0 4.772 0v-7.9h2.727v7.9a5.113 5.113 0 1 1-10.226 0z" class="cls-3" transform="translate(-343.754 -328.355)"/>
        <path id="Path_12" d="M392.865 366.93l5.252 7.518v-7.518h2.727v12.9h-2.285l-5.289-7.518v7.518h-2.727v-12.9z" class="cls-3" transform="translate(-350.3 -328.355)"/>
        <path id="Path_13" d="M421.549 373.324a6.364 6.364 0 0 1-6.541 6.5h-4.422v-12.9h4.422a6.318 6.318 0 0 1 6.541 6.4zm-2.819 0a3.533 3.533 0 0 0-3.538-3.777h-1.879v7.665h1.879a3.619 3.619 0 0 0 3.538-3.888z" class="cls-3" transform="translate(-356.707 -328.355)"/>
        <path id="Path_14" d="M436.319 377.673h-4.975l-.829 2.156h-2.893l5.122-12.9h2.211l5.141 12.9h-2.966zm-.9-2.34l-1.567-4.127-1.6 4.127z" class="cls-3" transform="translate(-362.152 -328.355)"/>
        <path id="Path_15" d="M455.761 369.547h-3.777v10.282h-2.727v-10.282H445.5v-2.617h10.263z" class="cls-3" transform="translate(-367.867 -328.355)"/>
        <path id="Path_16" d="M466.8 366.93v12.9h-2.727v-12.9z" class="cls-3" transform="translate(-373.806 -328.355)"/>
        <path id="Path_17" d="M485.107 373.293a6.588 6.588 0 1 1-6.6-6.634 6.473 6.473 0 0 1 6.6 6.634zm-10.374 0a3.782 3.782 0 1 0 3.777-3.981 3.8 3.8 0 0 0-3.777 3.981z" class="cls-3" transform="translate(-376.317 -328.268)"/>
        <path id="Path_18" d="M496.9 366.93l5.251 7.518v-7.518h2.727v12.9h-2.285l-5.293-7.52v7.518h-2.727v-12.9z" class="cls-3" transform="translate(-383.555 -328.355)"/>
    </g>
</svg>
