<svg xmlns="http://www.w3.org/2000/svg" width="89.593" height="208.737" viewBox="0 0 89.593 208.737">
    <path fill="#d1d3d4" d="M694.19 414.986h-.15c-.443-1.9.268-3.238.589-4.8a41.707 41.707 0 0 0 .761-4.772c.068-.782.191-1.832.273-2.57a32.259 32.259 0 0 0-2.895-15.308l-2.557-4.322a14.938 14.938 0 0 0-1.218-1.625 9.038 9.038 0 0 0-1.234-1.455c-.911.664-1.789 5.888-2.011 7.261a55.924 55.924 0 0 0-.382 8.89c0 3.957.425 8.558 1.945 11.965a12.364 12.364 0 0 0 2.889 4.15c3.066 2.579 2.309.272 3.061 3.82.532 2.523.693.836.186 3.854a149.429 149.429 0 0 0-1.645 21.387c-.107.577-.064.227-.15.15-.743-.545-.584-1.291-.47-2.266.1-.827.021-2.1.021-2.968a32.307 32.307 0 0 0-4.14-16.5l-1.741-2.748a26.114 26.114 0 0 0-3.277-4.049 14.394 14.394 0 0 0-1.548-1.447l-2.475-2.011c-.407-.307-.28-.329-.879-.468-.938 4.025-.223 9.288.559 13.353.261 1.355.613 2.606.938 3.849l1.193 3.743c1.727 4.295 4.036 9.276 8.842 10.749 1.706.527 1.475-.036 2.179 1.561l.775 1.768c.227.477.18.316.184 1.016l.293 6.883c.193 2.854.537 6.074 1 8.874l1.539 8.183c-.868-.23-.657-1.184-.893-2.1a44.256 44.256 0 0 0-2.1-6.874 10.107 10.107 0 0 1-.464-1.032 3.936 3.936 0 0 0-.457-1.038c-.4-.657-.666-1.227-1.084-1.909a47.912 47.912 0 0 0-4.617-5.854l-4.059-3.418c-1.616-1.221-5.922-3.756-8.013-3.8a18.264 18.264 0 0 0 .157 2.834 25.943 25.943 0 0 0 2.091 6.734l3.484 6.984 3.777 5.049a14.092 14.092 0 0 0 5.979 4.341c1.95.775 3.261.382 5.152.382a9.534 9.534 0 0 0 1.534 2.356c.313.334.311.2.5.7.241.639.382 1.282.575 1.964a92.194 92.194 0 0 0 3.354 9.36l2.318 5.311c.318.625.479 1.12.8 1.748l3.49 6.681c-1.07-.023-1.195-.52-1.538-1.305l-1.5-2.84c-.209-.359-.311-.493-.525-.822l-4.009-5.263-.073-.079-3.382-2.9a27.525 27.525 0 0 0-3.531-2.154l-2.888-1.3c-3.557-1.207-6.168-1.291-10.076-1.291 0 2.338 2.05 5.774 3.231 7.538a42.382 42.382 0 0 0 6.586 7.472c.139.13.177.162.313.286l3.118 2.268c.32.186.4.255.759.436a14.415 14.415 0 0 0 8.8 1.663c3.034-.555 2.363-1.905 4.74-.241 1.291.9 1.2.654 2.07 1.97 1.438 2.17 2.731 4.225 4.3 6.322l2.35 3.032c.809 1.029 1.541 1.864 2.375 2.861.243.293.37.4.634.713l.272.327c.713.832 3.913 3.713 4.134 4.541-1.034 0-1.12-.452-1.757-1.086-2.913-2.9-5.318-5.338-9.365-6.788a24.17 24.17 0 0 0-11.717-1.205l-4.443.943c-1.382.339-2.572 1.079-3.979 1.405a1.427 1.427 0 0 0 .355 1.143 15.333 15.333 0 0 0 2.323 2.611l.243.205a.982.982 0 0 1 .08.07c.025.018.057.046.082.066l7.834 4.879c5.245 2.675 15.469 4.516 19.294-1.2 1.116.259 2.768.123 3.557.932a55.025 55.025 0 0 0 6.254 4.961c.511.352.8.589 1.316.927.955.636 1.763 1.134 2.72 1.77a55.287 55.287 0 0 0 5.8 3.175c.791.4 2.336.866 2.791 1.547-.934.448-1.479-.129-2.091-.448a31.656 31.656 0 0 0-5.768-2.609c-7.447-2.159-16.219.038-22.248 4.958l-1.56 1.158a2.261 2.261 0 0 0-.659.686 8.632 8.632 0 0 0 2.4 1.939 12.893 12.893 0 0 0 1.536.709 25.6 25.6 0 0 0 4.827 1.6c1.207.263 2.357.482 3.549.639 6.667.875 15.458-.032 18.844-6.493.482-.92.27-.714 1.338-.907 1.521-.275 1.789-.621 3.279-.055l4.827 1.6c3.143.891 7.413 2.157 10.556 2.157-.805-1.675.12-1.829-2.206-2.282a65.942 65.942 0 0 1-13.8-4c-1.606-.7-1.87-.339-2.157-1.132-.9-2.475-.143-6.206-.5-9.069a26.991 26.991 0 0 0-1.822-7 26 26 0 0 0-1.45-3.04l-2.207-3.325-3.777-3.85c-.562-.475-4.811-3.716-5.281-3.247-.22.221.618 3.965.663 4.272.537 3.709.889 7.508 2.011 11 1.691 5.274 2.645 7.735 7.07 11.029a5.873 5.873 0 0 0 3.868 1.216 4.486 4.486 0 0 1 .3 1.647c-1.759-.146-8.345-4.37-9.92-5.336a44.775 44.775 0 0 1-4.418-3.209c-.543-.436-.875-.646-1.4-1.139l-2.093-1.795c-1.454-1.354-2.684-1.65-2.661-3.624a21.624 21.624 0 0 1 .037-2.514c.15-.9 1.256-3.356 1.659-5.82a23.277 23.277 0 0 0 .384-4.658c-.171-1.471-.2-3.273-.4-4.688a34.522 34.522 0 0 0-4.818-12.98c-.33-.554-.7-.947-1.064-1.479-.571-.836-1.334-2.288-2.37-2.565a49.09 49.09 0 0 1-.571 4.961c-.564 5.086-1.507 10.053-.95 15.255a20.246 20.246 0 0 0 .829 4.706 14.018 14.018 0 0 0 4.3 6.617c1.807 1.427 2.075.611 2.075 3.311-.768-.207-1.289-1.07-1.809-1.632l-.843-.948c-3.936-3.9-8.1-10.081-10.817-14.614-.947-1.58-1.579-1.832-1.156-3.565.605-2.488-.293-1.611 1.252-3.832a26.314 26.314 0 0 0 4.334-10.922 28.1 28.1 0 0 0 .509-4.577 9.194 9.194 0 0 0 .046-2.279c-.37-2.632-.1-3.415-.907-6.724-.179-.736-.363-1.205-.539-2a9.72 9.72 0 0 0-.627-1.914l-1.409-3.675h-.448c-.116 1.386-3.156 8.067-3.834 10.076l-1.371 4.011c-.211.777-.321 1.366-.571 2.123a21.537 21.537 0 0 0-.638 9.8c.5 2.784 1.614 6.034 3.574 7.349a14.442 14.442 0 0 0-.3 2.093h-.3a7.543 7.543 0 0 0-.87-1.823 92.011 92.011 0 0 1-4.795-11.062c-1.157-3.211-2.272-6.62-3.191-9.969-.766-2.781-.879-2.765-.216-4.018.85-1.607.388-2.216 1.932-3.3.334-.232.495-.286.813-.532l2.1-1.938a19.636 19.636 0 0 0 2.343-2.893 34.046 34.046 0 0 0 3.441-7.029 29.169 29.169 0 0 0 1.875-8.592 32.532 32.532 0 0 0-.189-7.429 18.6 18.6 0 0 1-.254-2.289c-.636.17-1.013 1.082-1.377 1.616-1.939 2.848-4.268 5.447-6.25 8.256-2.456 3.479-4.958 7.36-5.688 11.662a18.879 18.879 0 0 0-.193 5.436 12.875 12.875 0 0 0 .2 1.291 8.154 8.154 0 0 0 .345 1 2.762 2.762 0 0 0 .48 1.014c1.118 1.586-.1 1.3-.234 2.927h-.3a144.124 144.124 0 0 1-2.522-17.073c-.1-.963-.439-8.994-.246-9.476.013-.032 1.014-1.277 1.123-1.418a11.7 11.7 0 0 1 .939-1.455c.466-.427 2.648-1.007 3.379-1.407a18.68 18.68 0 0 0 4.322-3.156 31.788 31.788 0 0 0 6.318-9.538A32.891 32.891 0 0 0 712 409.748a3.555 3.555 0 0 0-1.15.795c-2.089 1.7-4.552 3.441-6.511 5.156-.395.343-.682.541-1.052.893-2.159 2.056-5.008 4.515-6.4 7.213l-1.793 4.041a19.231 19.231 0 0 0-.689 3.2c-.318 2.105.313 5.025.238 5.461-.082.479-.088.318-.4.663-.552.607-1.057 1.577-.966.114.093-1.507.037-4.338.213-5.658.291-2.207.418-4.725.752-7.026l1.688-9.978c.973-4.918.6-3.472 2.629-5.15 1.482-1.223.761-.7 3.123-.763 5.292-.145 11.106-5.174 14.1-9.236 1.618-2.193 4.668-7.99 4.89-10.665l-3.988 1.547c-1.238.612-2.615.921-3.888 1.5-4.188 1.889-6.9 2.866-10.26 6.191a12.156 12.156 0 0 0-3.536 7.387c-.321 3.073.948 1.972-1.664 3.72a16.448 16.448 0 0 1 .914-3.72l4.149-12.008a66.656 66.656 0 0 1 3.5-7.867c.414-.763.579-.346 1.529-.716a8.278 8.278 0 0 1 1.573-.639c.545-.011 2.82.793 3.748.863 5.322.4 10.972-2.282 14.619-6.009.438-.448.582-.748 1.041-1.2l2.091-2.543c.339-.457.6-.861.911-1.336l.775-1.466-8.82.452c-4.581.25-9.985 1.9-12.785 5.615-2.522 3.345-.671 5.2-3.672 5.45a6.542 6.542 0 0 1 1.134-2.607l3.3-5.818c.309-.5.4-.532.7-1.1 1.557-2.9 4.084-5.818 5.931-8.576a7.255 7.255 0 0 0 2.182-.223c1.72-.473 1.448.939 5.036 1.679 6.779 1.4 12.81-1.232 17.423-5.831a12.537 12.537 0 0 0 1.132-1.263c.416-.513.8-.743.85-1.393a34.59 34.59 0 0 1-3.652-.536c-3.627-.557-7.168-1.33-10.967-.77a11.412 11.412 0 0 0-1.631.463c-.639.191-1.007.27-1.595.5-2.347.913-5.733 3.706-5.938 6.175a10.256 10.256 0 0 1-1.795.3c.057-.68-.05-.234.313-.734a74.371 74.371 0 0 1 5.118-5.95l.386-.361c.021-.023.053-.054.077-.075l.573-.621a66 66 0 0 1 5.179-4.843c1.138-.938 1.588-.741 3.141-.895 7.12-.716 12.635-6.367 15.676-12.446a33.36 33.36 0 0 0 1.677-4.306c.125-.37.186-.454.275-.773.125-.45 0-.3.191-.7-1.2.1-5.509 2.018-7.159 2.563-4.772 1.57-11.674 5.624-13 11.076-.673 2.757-.327 1.78-.327 4.159a37.683 37.683 0 0 0-5.049 4.674 61.3 61.3 0 0 0-5.186 5.583 8.342 8.342 0 0 1-.57.627l-3.232 3.949c-.552.671-2.018 3.022-1.855 1.472a2.7 2.7 0 0 1 .67-1.761l2.175-2.613a22.615 22.615 0 0 0 1.895-2.891c.339-.564.548-.955.866-1.527a28.316 28.316 0 0 0 2.479-7.093 55.738 55.738 0 0 0 .991-6.188c.363-2.507.193-9.052-.661-10.833a8.288 8.288 0 0 0-.729.621l-2.005 1.88a37.454 37.454 0 0 0-6.143 9.413c-1.546 3.072-1.747 4.683-2.493 7.827a18.219 18.219 0 0 0 .577 9.147c.636 1.738 1.95 2.105 1.77 3.347-.116.793-.209 1.425-.33 2.234-.182 1.216-.316.97-.809 1.738l-2.1 3.129c-2.168 3.047-3.85 6.431-5.77 9.636-.479.8-2.964 6.424-3.5 6.817a2.45 2.45 0 0 1 .363-2.179c.605-1.23 1.33-2.416 1.818-3.716l.682-2.009a27.968 27.968 0 0 0 1.775-9.145c-.009-1.622.145-3.991-.023-5.513l-.689-4.7a37.094 37.094 0 0 0-2.584-6.988c-.134-.3-.291-.614-.443-.9a10.031 10.031 0 0 0-1.945 2.99 35.022 35.022 0 0 0-2.634 7.24A52.516 52.516 0 0 0 696.583 377c-.034.648-.116.5-.147 1.057l.48 4.44a14.941 14.941 0 0 0 1.261 3.527c1.695 3.423 3.077 2.5 2.791 4.472-.157 1.072.236 2.286-.166 3.273a92.931 92.931 0 0 0-4.068 11.651l-1.527 5.8c-.178.652-.539 3.218-1.018 3.768" transform="translate(-672.951 -333.322)"/>
</svg>
